0.000000000000000000e+00 1.000000000000000000e+00
2.500000000000000000e-01 7.015642209631726134e-01
5.000000000000000000e-01 5.910875467422098684e-01
7.500000000000000000e-01 5.114324504249293524e-01
1.000000000000000000e+00 4.477527308781872328e-01
1.250000000000000000e+00 3.947026912181307301e-01
1.500000000000000000e+00 3.496054050991501683e-01
1.750000000000000000e+00 3.108208810198300753e-01
2.000000000000000000e+00 2.772059801699716663e-01
2.250000000000000000e+00 2.479013314447590377e-01
2.500000000000000000e+00 2.222329660056656109e-01
2.750000000000000000e+00 1.996590226628895959e-01
3.000000000000000000e+00 1.797372577903682267e-01
3.250000000000000000e+00 1.621026543909348527e-01
3.500000000000000000e+00 1.464498555240792699e-01
3.750000000000000000e+00 1.325172719546742761e-01
4.000000000000000000e+00 1.200755155807364666e-01
4.250000000000000000e+00 1.089260424929178322e-01
4.500000000000000000e+00 9.890367903682720230e-02
4.750000000000000000e+00 8.987301274787533323e-02
5.000000000000000000e+00 8.172208696883846712e-02
5.208333333333333037e+00 7.441477223796036378e-02
5.458333333333333037e+00 6.774737138810200954e-02
5.708333333333333037e+00 6.171331246458926223e-02
5.958333333333333037e+00 5.625021019830023228e-02
6.208333333333333037e+00 5.130279121813031973e-02
6.458333333333333037e+00 4.682143796033989142e-02
6.708333333333333037e+00 4.276129915014164479e-02
6.958333333333333037e+00 3.908167252124644664e-02
7.208333333333333037e+00 3.574578951841362456e-02
7.458333333333333037e+00 3.272015750708214682e-02
7.708333333333333037e+00 2.997441246458926178e-02
7.958333333333333037e+00 2.748118895184134200e-02
8.208333333333333925e+00 2.521579518413596954e-02
8.458333333333333925e+00 2.315600453257790278e-02
8.708333333333333925e+00 2.128183031161474253e-02
8.958333333333333925e+00 1.957526005665722810e-02
9.208333333333333925e+00 1.802007053824362590e-02
9.458333333333333925e+00 1.660154702549574909e-02
9.708333333333333925e+00 1.530613342776204408e-02
9.958333333333333925e+00 1.412155155807365975e-02
1.020833333333333393e+01 1.303699971671389186e-02
1.050000000000000000e+01 1.204289688385268980e-02
1.075000000000000000e+01 1.113069178470254758e-02
1.100000000000000000e+01 1.029273427762040539e-02
1.125000000000000000e+01 9.522200821529745035e-03
1.150000000000000000e+01 8.813000198300283833e-03
1.175000000000000000e+01 8.159689688385270145e-03
1.200000000000000000e+01 7.557398951841364301e-03
1.225000000000000000e+01 7.001760169971676592e-03
1.250000000000000000e+01 6.488844759206801281e-03
1.275000000000000000e+01 6.015110481586403296e-03
1.300000000000000000e+01 5.577352351274786867e-03
1.325000000000000000e+01 5.172662096317275950e-03
1.350000000000000000e+01 4.798394957507084134e-03
1.375000000000000000e+01 4.452140028328613157e-03
1.400000000000000000e+01 4.131696090651558115e-03
1.425000000000000000e+01 3.835025382436259463e-03
1.450000000000000000e+01 3.560280453257791845e-03
1.475000000000000000e+01 3.305782974504246560e-03
1.500000000000000000e+01 3.069984305949010044e-03
1.525000000000000000e+01 2.851458045325777711e-03
1.550000000000000000e+01 2.648890963172803332e-03
1.570833333333333393e+01 2.462578526912181411e-03
1.595833333333333393e+01 2.288288640226629391e-03
1.620833333333333215e+01 2.126633541076484567e-03
1.645833333333333215e+01 1.976675609065155735e-03
1.670833333333333215e+01 1.837546005665722029e-03
1.695833333333333215e+01 1.708440113314445806e-03
1.720833333333333215e+01 1.588610963172804166e-03
1.745833333333333215e+01 1.477372266288951843e-03
1.770833333333333215e+01 1.374078045325778869e-03
1.795833333333333215e+01 1.278138838526911595e-03
1.820833333333333215e+01 1.189009461756373575e-03
1.845833333333333215e+01 1.106222039660055860e-03
1.870833333333333215e+01 1.029377308781870021e-03
1.895833333333333215e+01 9.580351671388090710e-04
1.920833333333333215e+01 8.917341133144475983e-04
1.945833333333333215e+01 8.301126742209637100e-04
1.970833333333333215e+01 7.728381303116154235e-04
1.995833333333333215e+01 7.195984759206796059e-04
2.020833333333333215e+01 6.701037223796035272e-04
2.045833333333333215e+01 6.240848696883847949e-04
2.075000000000000000e+01 5.812924277620394034e-04
