0.000000000000000000e+00 1.019315099150141180e+00
2.500000000000000000e-01 1.013644617563739692e+00
5.000000000000000000e-01 1.016914730878186957e+00
7.500000000000000000e-01 1.019731926345609274e+00
1.000000000000000000e+00 1.022233144475920286e+00
1.250000000000000000e+00 1.024401161473088351e+00
1.500000000000000000e+00 1.026137932011331078e+00
1.750000000000000000e+00 1.027275524079320546e+00
2.000000000000000000e+00 1.027572379603398867e+00
2.250000000000000000e+00 1.026706430594899633e+00
2.500000000000000000e+00 1.024263371104815912e+00
2.750000000000000000e+00 1.019725269121813938e+00
3.000000000000000000e+00 1.012479461756374155e+00
3.250000000000000000e+00 1.001942048158639631e+00
3.500000000000000000e+00 9.879505552407931157e-01
3.750000000000000000e+00 9.714457082152968548e-01
4.000000000000000000e+00 9.546124872521249971e-01
4.250000000000000000e+00 9.393474532577900105e-01
4.500000000000000000e+00 9.263322237960331940e-01
4.750000000000000000e+00 9.155016798866859595e-01
5.000000000000000000e+00 9.065457223796040687e-01
5.208333333333333037e+00 8.992128300283290798e-01
5.458333333333333037e+00 8.931424929178461980e-01
5.708333333333333037e+00 8.882109235127479963e-01
5.958333333333333037e+00 8.842730594900845009e-01
6.208333333333333037e+00 8.812143172804534075e-01
6.458333333333333037e+00 8.789383314447589690e-01
6.708333333333333037e+00 8.773596147308775350e-01
6.958333333333333037e+00 8.763997592067994669e-01
7.208333333333333037e+00 8.741795467422098787e-01
7.458333333333333037e+00 8.724246118980170106e-01
7.708333333333333037e+00 8.711195495750705398e-01
7.958333333333333037e+00 8.702303427762042576e-01
8.208333333333333925e+00 8.697268838526922563e-01
8.458333333333333925e+00 8.695812209631721412e-01
8.708333333333333925e+00 8.697690311614731939e-01
8.958333333333333925e+00 8.702617762039666083e-01
9.208333333333333925e+00 8.710355920679890840e-01
9.458333333333333925e+00 8.720626685552409496e-01
9.708333333333333925e+00 8.732710509915009300e-01
9.958333333333333925e+00 8.745150000000000423e-01
1.020833333333333393e+01 8.757444645892357160e-01
1.050000000000000000e+01 8.769574957507080271e-01
1.075000000000000000e+01 8.781542294617565858e-01
1.100000000000000000e+01 8.793389065155807760e-01
1.125000000000000000e+01 8.805093456090654636e-01
1.150000000000000000e+01 8.816719376770529859e-01
1.175000000000000000e+01 8.828308470254946361e-01
1.200000000000000000e+01 8.839906827195475048e-01
1.225000000000000000e+01 8.851562209631727018e-01
1.250000000000000000e+01 8.863314022662887037e-01
1.275000000000000000e+01 8.875199660056657391e-01
1.300000000000000000e+01 8.887269603399431395e-01
1.325000000000000000e+01 8.899569461756363653e-01
1.350000000000000000e+01 8.912179490084988220e-01
1.375000000000000000e+01 8.925062776203965820e-01
1.400000000000000000e+01 8.938311416430595457e-01
1.425000000000000000e+01 8.971139036827189273e-01
1.450000000000000000e+01 9.005215099150138958e-01
1.475000000000000000e+01 9.040700821529744635e-01
1.500000000000000000e+01 9.078153937677061469e-01
1.525000000000000000e+01 9.118381841359772810e-01
1.550000000000000000e+01 9.162115212464588820e-01
1.570833333333333393e+01 9.209977762039666116e-01
1.595833333333333393e+01 9.257972351274792455e-01
1.620833333333333215e+01 9.307533824362606012e-01
1.645833333333333215e+01 9.359470991501419590e-01
1.670833333333333215e+01 9.414294475920681471e-01
1.695833333333333215e+01 9.474775864022664251e-01
1.720833333333333215e+01 9.540983994334271134e-01
1.745833333333333215e+01 9.616703994334281358e-01
1.770833333333333215e+01 9.707819858356939724e-01
1.795833333333333215e+01 9.817815892351269280e-01
1.820833333333333215e+01 9.958244759206797969e-01
1.845833333333333215e+01 1.013607730878187230e+00
1.870833333333333215e+01 1.031031563739376544e+00
1.895833333333333215e+01 1.044266997167138111e+00
1.920833333333333215e+01 1.052436798866855927e+00
1.945833333333333215e+01 1.058713512747876395e+00
1.970833333333333215e+01 1.063925892351274882e+00
1.995833333333333215e+01 1.068419603399433093e+00
2.020833333333333215e+01 1.072383966005665101e+00
2.045833333333333215e+01 1.075937280453257872e+00
2.075000000000000000e+01 1.079159603399433509e+00
